Data Science for Finance - 03_Importing_Data
…
tail(Tickers2)

# A tibble: 6 × 3
  Symbol Name                   Sector                
  <chr>  <chr>                  <chr>                 
1 XL     XL Capital             Financials            
2 XYL    Xylem Inc.             Industrials           
3 YUM    Yum! Brands Inc        Consumer Discretionary
4 ZBH    Zimmer Biomet Holdings Health Care           
5 ZION   Zions Bancorp          Financials            
6 ZTS    Zoetis                 Health Care           

Tickers2

# A tibble: 505 × 3
   Symbol Name                       Sector                
   <chr>  <chr>                      <chr>                 
 1 MMM    3M Company                 Industrials           
 2 AOS    A.O. Smith Corp            Industrials           
 3 ABT    Abbott Laboratories        Health Care           
 4 ABBV   AbbVie Inc.                Health Care           
 5 ACN    Accenture plc              Information Technology
 6 ATVI   Activision Blizzard        Information Technology
 7 AYI    Acuity Brands Inc          Industrials           
 8 ADBE   Adobe Systems Inc          Information Technology
 9 AAP    Advance Auto Parts         Consumer Discretionary
10 AMD    Advanced Micro Devices Inc Information Technology
# … with 495 more rows
…
[1] "Symbol" "Name"   "Sector"

Tickers2 <- Tickers2 |> 
  rename(
    Company_Name = `Name`
  )
names(Tickers2)

[1] "Symbol"       "Company_Name" "Sector"      

An alternative approach is to use janitor::clean_names() to use some heuristics to turn them all into snake case at once1. It’s always better to type the names of columns in small letters and with _ instead of space ” “.

Tickers2 |> janitor::clean_names() 

# A tibble: 505 × 3
   symbol company_name               sector                
   <chr>  <chr>                      <chr>                 
 1 MMM    3M Company                 Industrials           
 2 AOS    A.O. Smith Corp            Industrials           
 3 ABT    Abbott Laboratories        Health Care           
 4 ABBV   AbbVie Inc.                Health Care           
 5 ACN    Accenture plc              Information Technology
 6 ATVI   Activision Blizzard        Information Technology
 7 AYI    Acuity Brands Inc          Industrials           
 8 ADBE   Adobe Systems Inc          Information Technology
 9 AAP    Advance Auto Parts         Consumer Discretionary
10 AMD    Advanced Micro Devices Inc Information Technology
# … with 495 more rows

#Cmd+Shift+M

Variable Types

Another common task after reading in data is to consider variable types. For example, sector is a categorical variable with a known set of possible values, which in R should be represented as a factor:

Tickers2 |>
  janitor::clean_names() |>
  mutate(sector = factor(sector))

# A tibble: 505 × 3
   symbol company_name               sector                
   <chr>  <chr>                      <fct>                 
 1 MMM    3M Company                 Industrials           
 2 AOS    A.O. Smith Corp            Industrials           
 3 ABT    Abbott Laboratories        Health Care           
 4 ABBV   AbbVie Inc.                Health Care           
 5 ACN    Accenture plc              Information Technology
 6 ATVI   Activision Blizzard        Information Technology
 7 AYI    Acuity Brands Inc          Industrials           
 8 ADBE   Adobe Systems Inc          Information Technology
 9 AAP    Advance Auto Parts         Consumer Discretionary
10 AMD    Advanced Micro Devices Inc Information Technology
# … with 495 more rows
…
df_yf |> janitor::clean_names()

# A tibble: 18,674 × 11
   ticker ref_date   price_open price_…¹ price…² price…³ volume price…⁴ ret_ad…⁵
 * <chr>  <date>          <dbl>    <dbl>   <dbl>   <dbl>  <dbl>   <dbl>    <dbl>
 1 ^GSPC  1950-01-03       16.7     16.7    16.7    16.7 1.26e6    16.7 NA      
 2 ^GSPC  1950-01-04       16.8     16.8    16.8    16.8 1.89e6    16.8  0.0114 
 3 ^GSPC  1950-01-05       16.9     16.9    16.9    16.9 2.55e6    16.9  0.00475
 4 ^GSPC  1950-01-06       17.0     17.0    17.0    17.0 2.01e6    17.0  0.00295
 5 ^GSPC  1950-01-09       17.1     17.1    17.1    17.1 2.52e6    17.1  0.00589
 6 ^GSPC  1950-01-10       17.0     17.0    17.0    17.0 2.16e6    17.0 -0.00293
 7 ^GSPC  1950-01-11       17.1     17.1    17.1    17.1 2.63e6    17.1  0.00352
 8 ^GSPC  1950-01-12       16.8     16.8    16.8    16.8 2.97e6    16.8 -0.0193 
 9 ^GSPC  1950-01-13       16.7     16.7    16.7    16.7 3.33e6    16.7 -0.00537
10 ^GSPC  1950-01-16       16.7     16.7    16.7    16.7 1.46e6    16.7  0.00300
# … with 18,664 more rows, 2 more variables: ret_closing_prices <dbl>,
#   cumret_adjusted_prices <dbl>, and abbreviated variable names ¹​price_high,
#   ²​price_low, ³​price_close, ⁴​price_adjusted, ⁵​ret_adjusted_prices
